<?xml version="1.0" encoding="UTF-8" standalone="no"?>
<!-- Created with Inkscape (http://www.inkscape.org/) -->

<svg
   xmlns:dc="http://purl.org/dc/elements/1.1/"
   xmlns:cc="http://creativecommons.org/ns#"
   xmlns:rdf="http://www.w3.org/1999/02/22-rdf-syntax-ns#"
   xmlns:svg="http://www.w3.org/2000/svg"
   xmlns="http://www.w3.org/2000/svg"
   xmlns:sodipodi="http://sodipodi.sourceforge.net/DTD/sodipodi-0.dtd"
   xmlns:inkscape="http://www.inkscape.org/namespaces/inkscape"
   width="159.45555mm"
   height="69.086311mm"
   viewBox="0 0 564.99998 244.79402"
   id="svg2"
   version="1.1"
   inkscape:version="0.91 r13725"
   sodipodi:docname="trigger.svg">
  <defs
     id="defs4">
    <inkscape:path-effect
       effect="spiro"
       id="path-effect3474"
       is_visible="true" />
    <inkscape:path-effect
       effect="spiro"
       id="path-effect3470"
       is_visible="true" />
    <inkscape:path-effect
       effect="spiro"
       id="path-effect3466"
       is_visible="true" />
    <inkscape:path-effect
       effect="spiro"
       id="path-effect3462"
       is_visible="true" />
    <inkscape:path-effect
       effect="spiro"
       id="path-effect3458"
       is_visible="true" />
    <inkscape:path-effect
       effect="spiro"
       id="path-effect3454"
       is_visible="true" />
    <inkscape:path-effect
       effect="spiro"
       id="path-effect3450"
       is_visible="true" />
    <inkscape:path-effect
       effect="spiro"
       id="path-effect3446"
       is_visible="true" />
    <inkscape:path-effect
       effect="spiro"
       id="path-effect3442"
       is_visible="true" />
    <inkscape:path-effect
       effect="spiro"
       id="path-effect3438"
       is_visible="true" />
    <inkscape:path-effect
       effect="spiro"
       id="path-effect3434"
       is_visible="true" />
    <inkscape:path-effect
       effect="spiro"
       id="path-effect3430"
       is_visible="true" />
    <inkscape:path-effect
       effect="spiro"
       id="path-effect3426"
       is_visible="true" />
    <inkscape:path-effect
       effect="spiro"
       id="path-effect3422"
       is_visible="true" />
    <inkscape:path-effect
       effect="spiro"
       id="path-effect3418"
       is_visible="true" />
    <inkscape:path-effect
       effect="skeletal"
       id="path-effect3414"
       is_visible="true"
       pattern="M 0,5 C 0,2.24 2.24,0 5,0 7.76,0 10,2.24 10,5 10,7.76 7.76,10 5,10 2.24,10 0,7.76 0,5 Z"
       copytype="single_stretched"
       prop_scale="1"
       scale_y_rel="false"
       spacing="0"
       normal_offset="0"
       tang_offset="0"
       prop_units="false"
       vertical_pattern="false"
       fuse_tolerance="0" />
    <inkscape:path-effect
       effect="spiro"
       id="path-effect3412"
       is_visible="true" />
    <inkscape:path-effect
       effect="skeletal"
       id="path-effect3408"
       is_visible="true"
       pattern="M 0,5 C 0,2.24 2.24,0 5,0 7.76,0 10,2.24 10,5 10,7.76 7.76,10 5,10 2.24,10 0,7.76 0,5 Z"
       copytype="single_stretched"
       prop_scale="1"
       scale_y_rel="false"
       spacing="0"
       normal_offset="0"
       tang_offset="0"
       prop_units="false"
       vertical_pattern="false"
       fuse_tolerance="0" />
    <inkscape:path-effect
       effect="spiro"
       id="path-effect3406"
       is_visible="true" />
    <inkscape:path-effect
       effect="spiro"
       id="path-effect3396"
       is_visible="true" />
    <inkscape:path-effect
       effect="spiro"
       id="path-effect3392"
       is_visible="true" />
    <inkscape:path-effect
       effect="spiro"
       id="path-effect3386"
       is_visible="true" />
    <inkscape:path-effect
       effect="spiro"
       id="path-effect3382"
       is_visible="true" />
    <inkscape:path-effect
       effect="spiro"
       id="path-effect3378"
       is_visible="true" />
    <inkscape:path-effect
       effect="spiro"
       id="path-effect3374"
       is_visible="true" />
    <inkscape:path-effect
       effect="spiro"
       id="path-effect3370"
       is_visible="true" />
    <inkscape:path-effect
       effect="spiro"
       id="path-effect3366"
       is_visible="true" />
    <inkscape:path-effect
       effect="spiro"
       id="path-effect3362"
       is_visible="true" />
    <inkscape:path-effect
       effect="spiro"
       id="path-effect3358"
       is_visible="true" />
    <inkscape:path-effect
       effect="spiro"
       id="path-effect3354"
       is_visible="true" />
  </defs>
  <sodipodi:namedview
     id="base"
     pagecolor="#ffffff"
     bordercolor="#666666"
     borderopacity="1.0"
     inkscape:pageopacity="0.0"
     inkscape:pageshadow="2"
     inkscape:zoom="2.8"
     inkscape:cx="278.82836"
     inkscape:cy="148.58543"
     inkscape:document-units="px"
     inkscape:current-layer="layer1"
     showgrid="true"
     inkscape:snap-global="true"
     inkscape:snap-bbox="true"
     inkscape:bbox-paths="false"
     inkscape:snap-bbox-edge-midpoints="false"
     inkscape:bbox-nodes="true"
     inkscape:snap-bbox-midpoints="false"
     inkscape:window-width="1600"
     inkscape:window-height="841"
     inkscape:window-x="1680"
     inkscape:window-y="0"
     inkscape:window-maximized="1"
     fit-margin-top="0"
     fit-margin-left="0"
     fit-margin-right="0"
     fit-margin-bottom="0">
    <inkscape:grid
       type="xygrid"
       id="grid3336"
       originx="0"
       originy="-754.94108" />
  </sodipodi:namedview>
  <metadata
     id="metadata7">
    <rdf:RDF>
      <cc:Work
         rdf:about="">
        <dc:format>image/svg+xml</dc:format>
        <dc:type
           rdf:resource="http://purl.org/dc/dcmitype/StillImage" />
        <dc:title></dc:title>
      </cc:Work>
    </rdf:RDF>
  </metadata>
  <g
     inkscape:label="Layer 1"
     inkscape:groupmode="layer"
     id="layer1"
     transform="translate(0,-52.627098)">
    <text
       xml:space="preserve"
       style="font-style:normal;font-weight:normal;font-size:24px;line-height:125%;font-family:Sans;letter-spacing:0px;word-spacing:0px;fill:#000000;fill-opacity:1;stroke:none;stroke-width:1px;stroke-linecap:butt;stroke-linejoin:miter;stroke-opacity:1"
       x="-960"
       y="12.362205"
       id="text3338"
       sodipodi:linespacing="125%"><tspan
         sodipodi:role="line"
         id="tspan3340"
         x="-960"
         y="12.362205" /></text>
    <text
       xml:space="preserve"
       style="font-style:normal;font-weight:normal;font-size:24px;line-height:125%;font-family:Sans;letter-spacing:0px;word-spacing:0px;fill:#000000;fill-opacity:1;stroke:none;stroke-width:1px;stroke-linecap:butt;stroke-linejoin:miter;stroke-opacity:1"
       x="-2.3554688"
       y="87.362206"
       id="text3342"
       sodipodi:linespacing="125%"
       inkscape:transform-center-x="-1.25"
       inkscape:transform-center-y="-7.1428571"><tspan
         sodipodi:role="line"
         id="tspan3344"
         x="-2.3554688"
         y="87.362206">RF</tspan></text>
    <text
       xml:space="preserve"
       style="font-style:normal;font-weight:normal;font-size:24px;line-height:125%;font-family:Sans;letter-spacing:0px;word-spacing:0px;fill:#000000;fill-opacity:1;stroke:none;stroke-width:1px;stroke-linecap:butt;stroke-linejoin:miter;stroke-opacity:1"
       x="-1.5820312"
       y="117.02236"
       id="text3346"
       sodipodi:linespacing="125%"><tspan
         sodipodi:role="line"
         id="tspan3348"
         x="-1.5820312"
         y="117.02236">SC1</tspan></text>
    <text
       xml:space="preserve"
       style="font-style:normal;font-weight:normal;font-size:24px;line-height:125%;font-family:Sans;letter-spacing:0px;word-spacing:0px;fill:#000000;fill-opacity:1;stroke:none;stroke-width:1px;stroke-linecap:butt;stroke-linejoin:miter;stroke-opacity:1"
       x="-1.5820312"
       y="147.02235"
       id="text3350"
       sodipodi:linespacing="125%"><tspan
         sodipodi:role="line"
         id="tspan3352"
         x="-1.5820312"
         y="147.02235">SC1.1</tspan></text>
    <text
       xml:space="preserve"
       style="font-style:normal;font-weight:normal;font-size:24px;line-height:125%;font-family:Sans;letter-spacing:0px;word-spacing:0px;fill:#000000;fill-opacity:1;stroke:none;stroke-width:1px;stroke-linecap:butt;stroke-linejoin:miter;stroke-opacity:1"
       x="-1.5820312"
       y="177.02235"
       id="text3354"
       sodipodi:linespacing="125%"><tspan
         sodipodi:role="line"
         id="tspan3356"
         x="-1.5820312"
         y="177.02235">SC2</tspan></text>
    <text
       xml:space="preserve"
       style="font-style:normal;font-weight:normal;font-size:24px;line-height:125%;font-family:Sans;letter-spacing:0px;word-spacing:0px;fill:#000000;fill-opacity:1;stroke:none;stroke-width:1px;stroke-linecap:butt;stroke-linejoin:miter;stroke-opacity:1"
       x="-1.5820312"
       y="207.02235"
       id="text3358"
       sodipodi:linespacing="125%"><tspan
         sodipodi:role="line"
         id="tspan3360"
         x="-1.5820312"
         y="207.02235">SC3</tspan></text>
    <text
       xml:space="preserve"
       style="font-style:normal;font-weight:normal;font-size:24px;line-height:125%;font-family:Sans;letter-spacing:0px;word-spacing:0px;fill:#000000;fill-opacity:1;stroke:none;stroke-width:1px;stroke-linecap:butt;stroke-linejoin:miter;stroke-opacity:1"
       x="-1.5820312"
       y="237.02235"
       id="text3362"
       sodipodi:linespacing="125%"><tspan
         sodipodi:role="line"
         id="tspan3364"
         x="-1.5820312"
         y="237.02235">SC4</tspan></text>
    <text
       xml:space="preserve"
       style="font-style:normal;font-weight:normal;font-size:24px;line-height:125%;font-family:Sans;letter-spacing:0px;word-spacing:0px;fill:#000000;fill-opacity:1;stroke:none;stroke-width:1px;stroke-linecap:butt;stroke-linejoin:miter;stroke-opacity:1"
       x="-1.5820312"
       y="267.02237"
       id="text3366"
       sodipodi:linespacing="125%"><tspan
         sodipodi:role="line"
         id="tspan3368"
         x="-1.5820312"
         y="267.02237">SC5</tspan></text>
    <text
       xml:space="preserve"
       style="font-style:normal;font-weight:normal;font-size:24px;line-height:125%;font-family:Sans;letter-spacing:0px;word-spacing:0px;fill:#000000;fill-opacity:1;stroke:none;stroke-width:1px;stroke-linecap:butt;stroke-linejoin:miter;stroke-opacity:1"
       x="-1.5820312"
       y="297.02237"
       id="text3370"
       sodipodi:linespacing="125%"><tspan
         sodipodi:role="line"
         id="tspan3372"
         x="-1.5820312"
         y="297.02237">SC6</tspan></text>
    <path
       style="fill:none;fill-rule:evenodd;stroke:#000000;stroke-width:1px;stroke-linecap:butt;stroke-linejoin:miter;stroke-opacity:1"
       d="m 75.492964,77.197247 99.999996,0"
       id="path3352"
       inkscape:path-effect="#path-effect3354"
       inkscape:original-d="m 75.492964,77.197247 99.999996,0"
       inkscape:connector-curvature="0" />
    <path
       style="fill:none;fill-rule:evenodd;stroke:#000000;stroke-width:1px;stroke-linecap:butt;stroke-linejoin:miter;stroke-opacity:1"
       d="m 75.492964,107.19724 99.999996,0"
       id="path3356"
       inkscape:path-effect="#path-effect3358"
       inkscape:original-d="m 75.492964,107.19724 99.999996,0"
       inkscape:connector-curvature="0" />
    <path
       style="fill:none;fill-rule:evenodd;stroke:#000000;stroke-width:1px;stroke-linecap:butt;stroke-linejoin:miter;stroke-opacity:1"
       d="m 75.492964,136.69724 99.999996,0"
       id="path3360"
       inkscape:path-effect="#path-effect3362"
       inkscape:original-d="m 75.492964,136.69724 99.999996,0"
       inkscape:connector-curvature="0" />
    <path
       style="fill:none;fill-rule:evenodd;stroke:#000000;stroke-width:1px;stroke-linecap:butt;stroke-linejoin:miter;stroke-opacity:1"
       d="m 75.492964,166.69724 99.999996,0"
       id="path3364"
       inkscape:path-effect="#path-effect3366"
       inkscape:original-d="m 75.492964,166.69724 99.999996,0"
       inkscape:connector-curvature="0" />
    <path
       style="fill:none;fill-rule:evenodd;stroke:#000000;stroke-width:1px;stroke-linecap:butt;stroke-linejoin:miter;stroke-opacity:1"
       d="m 75.492964,196.69724 99.999996,0"
       id="path3368"
       inkscape:path-effect="#path-effect3370"
       inkscape:original-d="m 75.492964,196.69724 99.999996,0"
       inkscape:connector-curvature="0" />
    <path
       style="fill:none;fill-rule:evenodd;stroke:#000000;stroke-width:1px;stroke-linecap:butt;stroke-linejoin:miter;stroke-opacity:1"
       d="m 75.492964,226.69724 99.999996,0"
       id="path3372"
       inkscape:path-effect="#path-effect3374"
       inkscape:original-d="m 75.492964,226.69724 99.999996,0"
       inkscape:connector-curvature="0" />
    <path
       style="fill:none;fill-rule:evenodd;stroke:#000000;stroke-width:1px;stroke-linecap:butt;stroke-linejoin:miter;stroke-opacity:1"
       d="m 75.492964,256.69724 99.999996,0"
       id="path3376"
       inkscape:path-effect="#path-effect3378"
       inkscape:original-d="m 75.492964,256.69724 99.999996,0"
       inkscape:connector-curvature="0" />
    <path
       style="fill:none;fill-rule:evenodd;stroke:#000000;stroke-width:1px;stroke-linecap:butt;stroke-linejoin:miter;stroke-opacity:1"
       d="m 75.492964,286.69724 99.999996,0"
       id="path3380"
       inkscape:path-effect="#path-effect3382"
       inkscape:original-d="m 75.492964,286.69724 99.999996,0"
       inkscape:connector-curvature="0" />
    <path
       style="fill:none;fill-rule:evenodd;stroke:#000000;stroke-width:1px;stroke-linecap:butt;stroke-linejoin:miter;stroke-opacity:1"
       d="m 175.49296,96.697247 0,49.999993"
       id="path3384"
       inkscape:path-effect="#path-effect3386"
       inkscape:original-d="m 175.49296,96.697247 0,49.999993"
       inkscape:connector-curvature="0" />
    <path
       style="fill:none;fill-rule:evenodd;stroke:#000000;stroke-width:1px;stroke-linecap:butt;stroke-linejoin:miter;stroke-opacity:1"
       d="m 175.49296,146.69724 0,-49.999993"
       id="path3420"
       inkscape:path-effect="#path-effect3422"
       inkscape:original-d="m 175.49296,146.69724 c 0,0 75,-25 0,-49.999993"
       inkscape:connector-curvature="0" />
    <path
       style="fill:none;fill-rule:evenodd;stroke:#000000;stroke-width:1px;stroke-linecap:butt;stroke-linejoin:miter;stroke-opacity:1"
       d="m 175.49296,96.697247 0,49.999993 0,-49.999993"
       id="path3428"
       inkscape:path-effect="#path-effect3430"
       inkscape:original-d="m 175.49296,96.697247 0,49.999993 c 0,0 65,-25 0,-49.999993"
       inkscape:connector-curvature="0" />
    <path
       style="fill:none;fill-rule:evenodd;stroke:#000000;stroke-width:1.0103991px;stroke-linecap:butt;stroke-linejoin:miter;stroke-opacity:1"
       d="m 175.4925,96.701369 c 0,0 66.36986,24.995871 0,49.991751"
       id="path3478"
       inkscape:connector-curvature="0" />
    <path
       style="fill:none;fill-rule:evenodd;stroke:#000000;stroke-width:1.01029456px;stroke-linecap:butt;stroke-linejoin:miter;stroke-opacity:1"
       d="m 175.49701,156.70341 0,49.98764 c 0,0 66.36158,-19.99506 0,-49.98764 z"
       id="path3480"
       inkscape:connector-curvature="0" />
    <path
       style="fill:none;fill-rule:evenodd;stroke:#000000;stroke-width:1.01028168px;stroke-linecap:butt;stroke-linejoin:miter;stroke-opacity:1"
       d="m 175.497,246.7034 0,49.98768 c 0,0 66.35986,-24.99384 0,-49.98768 z"
       id="path3482"
       inkscape:connector-curvature="0" />
    <path
       style="fill:none;fill-rule:evenodd;stroke:#000000;stroke-width:1px;stroke-linecap:butt;stroke-linejoin:miter;stroke-opacity:1"
       d="m 175.49296,77.197247 95,0"
       id="path3484"
       inkscape:connector-curvature="0" />
    <path
       style="fill:none;fill-rule:evenodd;stroke:#000000;stroke-width:1px;stroke-linecap:butt;stroke-linejoin:miter;stroke-opacity:1"
       d="m 205.49296,181.69724 65,0"
       id="path3488"
       inkscape:connector-curvature="0" />
    <path
       style="fill:none;fill-rule:evenodd;stroke:#000000;stroke-width:1px;stroke-linecap:butt;stroke-linejoin:miter;stroke-opacity:1"
       d="m 175.49296,226.69724 95,0"
       id="path3490"
       inkscape:connector-curvature="0" />
    <path
       style="fill:none;fill-rule:evenodd;stroke:#000000;stroke-width:1px;stroke-linecap:butt;stroke-linejoin:miter;stroke-opacity:1"
       d="m 205.49296,271.69724 65,0"
       id="path3492"
       inkscape:connector-curvature="0" />
    <path
       style="fill:none;fill-rule:evenodd;stroke:#000000;stroke-width:0.67368138px;stroke-linecap:butt;stroke-linejoin:miter;stroke-opacity:1"
       d="m 270.33022,66.457823 0,49.763087 c 0,0 67.11449,-18.86623 0,-49.763087 z"
       id="path3494"
       inkscape:connector-curvature="0" />
    <path
       style="fill:none;fill-rule:evenodd;stroke:#000000;stroke-width:1px;stroke-linecap:butt;stroke-linejoin:miter;stroke-opacity:1"
       d="m 270.49296,226.69724 60,0 5,0"
       id="path3500"
       inkscape:connector-curvature="0" />
    <path
       style="fill:none;fill-rule:evenodd;stroke:#000000;stroke-width:1px;stroke-linecap:butt;stroke-linejoin:miter;stroke-opacity:1"
       d="m 270.49296,271.69724 65,0"
       id="path3502"
       inkscape:connector-curvature="0" />
    <path
       style="fill:none;fill-rule:evenodd;stroke:#000000;stroke-width:0.91298866px;stroke-linecap:butt;stroke-linejoin:miter;stroke-opacity:1"
       d="m 335.45649,126.64666 0,50.10133 c 0,0 66.54901,-20.04054 0,-50.10133 z"
       id="path3504"
       inkscape:connector-curvature="0" />
    <path
       style="fill:none;fill-rule:evenodd;stroke:#000000;stroke-width:1.33508754px;stroke-linecap:butt;stroke-linejoin:miter;stroke-opacity:1"
       d="m 416.1605,162.01818 0,48.80034 c 0,0 65.74597,-18.30012 0,-48.80034 z"
       id="path3510"
       inkscape:connector-curvature="0" />
    <path
       style="fill:none;fill-rule:evenodd;stroke:#000000;stroke-width:1px;stroke-linecap:butt;stroke-linejoin:miter;stroke-opacity:1"
       d="m 335.49296,271.69724 130,0 0,-45 35,0"
       id="path3512"
       inkscape:connector-curvature="0" />
    <path
       style="fill:none;fill-rule:evenodd;stroke:#000000;stroke-width:1px;stroke-linecap:butt;stroke-linejoin:miter;stroke-opacity:1"
       d="m 445.49296,186.69724 55,0"
       id="path3514"
       inkscape:connector-curvature="0" />
    <path
       style="fill:none;fill-rule:evenodd;stroke:#000000;stroke-width:0.96652013px;stroke-linecap:butt;stroke-linejoin:miter;stroke-opacity:1"
       d="m 500.47994,176.67686 0,60.04083 c 0,0 65.34681,-25.01701 0,-60.04083 z"
       id="path3516"
       inkscape:connector-curvature="0" />
    <path
       style="fill:none;fill-rule:evenodd;stroke:#000000;stroke-width:1px;stroke-linecap:butt;stroke-linejoin:miter;stroke-opacity:1"
       d="m 205.49296,121.69724 45,0 0,-15 20,0"
       id="path3518"
       inkscape:connector-curvature="0" />
    <path
       style="fill:none;fill-rule:evenodd;stroke:#000000;stroke-width:1px;stroke-linecap:butt;stroke-linejoin:miter;stroke-opacity:1"
       d="m 365.49296,151.69724 15,0 0,20 35,0"
       id="path3522"
       inkscape:connector-curvature="0" />
    <path
       style="fill:none;fill-rule:evenodd;stroke:#000000;stroke-width:1px;stroke-linecap:butt;stroke-linejoin:miter;stroke-opacity:1"
       d="m 300.49296,91.697247 15,0 0,44.999993 20,0"
       id="path3524"
       inkscape:connector-curvature="0" />
    <path
       style="fill:none;fill-rule:evenodd;stroke:#000000;stroke-width:1px;stroke-linecap:butt;stroke-linejoin:miter;stroke-opacity:1"
       d="m 270.49296,181.69724 45,0 0,-15 20,0"
       id="path3526"
       inkscape:connector-curvature="0" />
    <path
       style="fill:none;fill-rule:evenodd;stroke:#000000;stroke-width:1px;stroke-linecap:butt;stroke-linejoin:miter;stroke-opacity:1"
       d="m 530,206.8622 35,0"
       id="path3528"
       inkscape:connector-curvature="0" />
    <circle
       style="opacity:0.86645963;fill:#ffffff;fill-opacity:1;stroke:#000000;stroke-width:1;stroke-miterlimit:4;stroke-dasharray:none;stroke-dashoffset:0;stroke-opacity:1"
       id="path3530"
       cx="410.5"
       cy="202.8622"
       r="5" />
    <text
       xml:space="preserve"
       style="font-style:normal;font-weight:normal;font-size:17.5px;line-height:125%;font-family:Sans;letter-spacing:0px;word-spacing:0px;fill:#000000;fill-opacity:1;stroke:none;stroke-width:1px;stroke-linecap:butt;stroke-linejoin:miter;stroke-opacity:1"
       x="244.54834"
       y="62.124168"
       id="text3535"
       sodipodi:linespacing="125%"><tspan
         sodipodi:role="line"
         id="tspan3537"
         x="244.54834"
         y="62.124168"
         style="font-size:12.5px">π from Beam</tspan></text>
    <text
       xml:space="preserve"
       style="font-style:normal;font-weight:normal;font-size:17.5px;line-height:125%;font-family:Sans;letter-spacing:0px;word-spacing:0px;fill:#000000;fill-opacity:1;stroke:none;stroke-width:1px;stroke-linecap:butt;stroke-linejoin:miter;stroke-opacity:1"
       x="329.54834"
       y="124.76211"
       id="text3539"
       sodipodi:linespacing="125%"><tspan
         sodipodi:role="line"
         id="tspan3541"
         x="329.54834"
         y="124.76211"
         style="font-size:12.5px">π in target</tspan></text>
    <text
       xml:space="preserve"
       style="font-style:normal;font-weight:normal;font-size:17.5px;line-height:125%;font-family:Sans;letter-spacing:0px;word-spacing:0px;fill:#000000;fill-opacity:1;stroke:none;stroke-width:1px;stroke-linecap:butt;stroke-linejoin:miter;stroke-opacity:1"
       x="404.54834"
       y="156.85927"
       id="text3543"
       sodipodi:linespacing="125%"><tspan
         sodipodi:role="line"
         id="tspan3545"
         x="404.54834"
         y="156.85927"
         style="font-size:12.5px">π stopped</tspan></text>
    <text
       xml:space="preserve"
       style="font-style:normal;font-weight:normal;font-size:17.5px;line-height:125%;font-family:Sans;letter-spacing:0px;word-spacing:0px;fill:#000000;fill-opacity:1;stroke:none;stroke-width:1px;stroke-linecap:butt;stroke-linejoin:miter;stroke-opacity:1"
       x="204.52026"
       y="257.18521"
       id="text3547"
       sodipodi:linespacing="125%"><tspan
         sodipodi:role="line"
         id="tspan3549"
         x="204.52026"
         y="257.18521"
         style="font-size:12.5px">e⁺ in Calo</tspan></text>
    <text
       xml:space="preserve"
       style="font-style:normal;font-weight:normal;font-size:17.5px;line-height:125%;font-family:Sans;letter-spacing:0px;word-spacing:0px;fill:#000000;fill-opacity:1;stroke:none;stroke-width:1px;stroke-linecap:butt;stroke-linejoin:miter;stroke-opacity:1"
       x="495.03662"
       y="166.85927"
       id="text3551"
       sodipodi:linespacing="125%"><tspan
         sodipodi:role="line"
         id="tspan3553"
         x="495.03662"
         y="166.85927"
         style="font-size:12.5px">Trigger</tspan></text>
    <text
       xml:space="preserve"
       style="font-style:normal;font-weight:normal;font-size:17.5px;line-height:125%;font-family:Sans;letter-spacing:0px;word-spacing:0px;fill:#000000;fill-opacity:1;stroke:none;stroke-width:1px;stroke-linecap:butt;stroke-linejoin:miter;stroke-opacity:1"
       x="205.73975"
       y="196.85927"
       id="text3555"
       sodipodi:linespacing="125%"><tspan
         sodipodi:role="line"
         id="tspan3557"
         x="205.73975"
         y="196.85927"
         style="font-size:12.5px">particle in target</tspan></text>
    <text
       xml:space="preserve"
       style="font-style:normal;font-weight:normal;font-size:17.5px;line-height:125%;font-family:Sans;letter-spacing:0px;word-spacing:0px;fill:#000000;fill-opacity:1;stroke:none;stroke-width:1px;stroke-linecap:butt;stroke-linejoin:miter;stroke-opacity:1"
       x="125.7312"
       y="94.762108"
       id="text3559"
       sodipodi:linespacing="125%"><tspan
         sodipodi:role="line"
         id="tspan3561"
         x="125.7312"
         y="94.762108"
         style="font-size:12.5px">particle from Beam</tspan></text>
    <path
       style="fill:none;fill-rule:evenodd;stroke:#000000;stroke-width:1px;stroke-linecap:butt;stroke-linejoin:miter;stroke-opacity:1"
       d="m 335,226.8622 45,0 0,-25 20,0 5,0"
       id="path3601"
       inkscape:connector-curvature="0" />
  </g>
</svg>
